^C:\WEBAPPS\SLK\LEARNINGCOMPONENTS\STORAGE\LEARNINGSTORE\LEARNINGSTORESTRINGS.RESX
C:\WINDOWS\MICROSOFT.NET\FRAMEWORK\V1.1.4322\MSCORWKS.DLL
C:\WINDOWS\MICROSOFT.NET\FRAMEWORK\V2.0.50727\MSCORWKS.DLL
C:\WINDOWS\MICROSOFT.NET\FRAMEWORK\V4.0.30319\CLR.DLL
C:\PROGRAM FILES\MICROSOFT SDKS\WINDOWS\V7.0A\BIN\RESGEN.EXE.CONFIG
C:\PROGRAM FILES\MICROSOFT SDKS\WINDOWS\V7.0A\BIN\RESGEN.EXE
C:\WINDOWS\MICROSOFT.NET\FRAMEWORK\V2.0.50727\CONFIG\MACHINE.CONFIG
C:\WINDOWS\MICROSOFT.NET\FRAMEWORK\V2.0.50727\CONFIG\SECURITY.CONFIG
C:\WINDOWS\MICROSOFT.NET\FRAMEWORK\V2.0.50727\CONFIG\SECURITY.CONFIG.CCH
C:\WINDOWS\MICROSOFT.NET\FRAMEWORK\V2.0.50727\CONFIG\ENTERPRISESEC.CONFIG
C:\WINDOWS\MICROSOFT.NET\FRAMEWORK\V2.0.50727\CONFIG\ENTERPRISESEC.CONFIG.CCH
C:\WINDOWS\WINDOWSSHELL.MANIFEST
C:\WINDOWS\ASSEMBLY\NATIVEIMAGES_V2.0.50727_32\INDEX173B.DAT
C:\WINDOWS\ASSEMBLY\PUBPOL12.DAT
C:\WINDOWS\SYSTEM32\L_INTL.NLS
C:\WINDOWS\ASSEMBLY\GAC_32\MSCORLIB\2.0.0.0__B77A5C561934E089\SORTTBLS.NLP
C:\WINDOWS\ASSEMBLY\GAC_32\MSCORLIB\2.0.0.0__B77A5C561934E089\SORTKEY.NLP
C:\PROGRAM FILES\REFERENCE ASSEMBLIES\MICROSOFT\FRAMEWORK\V3.5\SYSTEM.CORE.DLL
C:\WINDOWS\MICROSOFT.NET\FRAMEWORK\V2.0.50727\SYSTEM.DATA.DLL
C:\WINDOWS\MICROSOFT.NET\FRAMEWORK\V2.0.50727\SYSTEM.DLL
C:\WINDOWS\MICROSOFT.NET\FRAMEWORK\V2.0.50727\SYSTEM.TRANSACTIONS.DLL
C:\WINDOWS\MICROSOFT.NET\FRAMEWORK\V2.0.50727\SYSTEM.WEB.DLL
C:\WINDOWS\MICROSOFT.NET\FRAMEWORK\V2.0.50727\SYSTEM.XML.DLL
^C:\WEBAPPS\SLK\LEARNINGCOMPONENTS\STORAGE\PROPERTIES\PACKAGERESOURCES.RESX
^C:\WEBAPPS\SLK\LEARNINGCOMPONENTS\STORAGE\PROPERTIES\RESOURCES.RESX
^C:\WEBAPPS\SLK\LEARNINGCOMPONENTS\STORAGE\PROPERTIES\SESSIONRESOURCES.RESX
^C:\WEBAPPS\TU_MAIN_CLEAN_SCORM_12112014\STORAGE\LEARNINGSTORE\LEARNINGSTORESTRINGS.RESX
^C:\WEBAPPS\TU_MAIN_CLEAN_SCORM_12112014\STORAGE\PROPERTIES\PACKAGERESOURCES.RESX
^C:\WEBAPPS\TU_MAIN_CLEAN_SCORM_12112014\STORAGE\PROPERTIES\RESOURCES.RESX
^C:\WEBAPPS\TU_MAIN_CLEAN_SCORM_12112014\STORAGE\PROPERTIES\SESSIONRESOURCES.RESX
